<?xml version="1.0" encoding="UTF-8"?>
<svg width="15px" height="15px" viewBox="0 0 15 15" version="1.1" xmlns="http://www.w3.org/2000/svg" xmlns:xlink="http://www.w3.org/1999/xlink">
    <!-- Generator: Sketch 56.3 (81716) - https://sketch.com -->
    <title>block-element-icon</title>
    <desc>Created with Sketch.</desc>
    <g id="Share-Numbers-+-block-element" stroke="none" stroke-width="1" fill="none" fill-rule="evenodd">
        <g id="block-element" transform="translate(-650.000000, -1178.000000)" fill="#0797E1">
            <g id="bubble" transform="translate(533.000000, 903.000000)">
                <g id="Group-11" transform="translate(15.681342, 265.534591)">
                    <g id="Group-8">
                        <g id="Block-Element">
                            <g id="Group-5" transform="translate(54.314465, 8.410901)">
                                <path d="M57.255905,13.0374238 L55.127044,15.2837328 L53.5303983,7.98322851 L60.4491964,9.66796027 L58.3203354,11.9142693 L61.5136268,14.8433025 L60.4491964,15.966457 L57.255905,13.0374238 Z M48.0419287,12.9727463 L52.5526182,12.9727463 C52.8281817,12.9727463 53.05157,13.1961347 53.05157,13.4716981 C53.05157,13.7472616 52.8281817,13.9706499 52.5526182,13.9706499 L47.5429769,13.9706499 C47.2674135,13.9706499 47.0440252,13.7472616 47.0440252,13.4716981 L47.0440252,2.49475891 C47.0440252,2.21919545 47.2674135,1.99580713 47.5429769,1.99580713 L58.5199161,1.99580713 C58.7954796,1.99580713 59.0188679,2.21919545 59.0188679,2.49475891 L59.0188679,7.50611423 C59.0188679,7.78167769 58.7954796,8.00506601 58.5199161,8.00506601 C58.2443527,8.00506601 58.0209644,7.78167769 58.0209644,7.50611423 L58.0209644,2.99371069 L48.0419287,2.99371069 L48.0419287,12.9727463 Z" id="block-element-icon"></path>
                            </g>
                        </g>
                    </g>
                </g>
            </g>
        </g>
    </g>
</svg>